-----BEGIN PGP MESSAGE-----

hQEMA9KP15N3zDJDAQgAkGxBQPRwkFusBio9zFvXgyxPiwwwgrjMlHS5kB8HS/u/
PaUy5hftiaZsezwil6VAHB1e+fwNljaHg2P6Y/jQfR6vts307PMzolZYffLgjnCT
5JtFZ6liz885WrRZ4ZUmFZZLKJgWKKB839kej+d9jC2PeMDQHbHh9lOmpSZ0rDds
AWB89WjPmtsvrCTerjaQXwQ5VVmscD9HSrgl+cUl0r+xGBTiLMZk6N6qo7oT8xLx
4vCyvheBbBqfpvIQ88j/OPVa/DTTLNfwuybHN5PJiPf3YWbuzSEi9bhfGy5YnjLk
OWNm+NfpiYHqgQ5AtqzC2GuE9QbiAB47NaJF1HbON9JIAa0m9ofL2WarKTLB9fbo
FC4+OA9RvclMccNpm9Wqu9zXClda3wq2LhJIhlux9QEn0Ey0GpIfkn5Rz3kevUr0
5sP1XNQpz4w8
=tdV2
-----END PGP MESSAGE-----
